(footprint "Screw_Terminal_01x02_5.08" (version 20211014) (generator pcbnew)
  (layer "F.Cu")
  (tedit 0)
  (attr through_hole)
  (fp_text reference "REF**" (at 2.54 -6.35 unlocked) (layer "F.SilkS")
    (effects (font (size 1 1) (thickness 0.15)))
    (tstamp 6b2b05c3-936b-4cc5-a91f-55ca32f3bcc9)
  )
  (fp_text value "Screw_Terminal_01x02_5.08" (at 2.54 6.35 unlocked) (layer "F.Fab")
    (effects (font (size 1 1) (thickness 0.15)))
    (tstamp e0fdd4f3-69ac-40c3-bf62-f0d0ccaf2ed4)
  )
  (fp_text user "${REFERENCE}" (at 2.54 7.874 unlocked) (layer "F.Fab")
    (effects (font (size 1 1) (thickness 0.15)))
    (tstamp 4343a53f-f4fd-4881-a5ac-75f837b222da)
  )
  (fp_rect (start -2.54 -5.334) (end 7.62 5.334) (layer "F.SilkS") (width 0.12) (fill none) (tstamp 4a3a7b70-81e1-43eb-96b6-010077c1c1e0))
  (fp_circle (center -1.778 -1.778) (end -1.524 -1.778) (layer "F.SilkS") (width 0.12) (fill solid) (tstamp 443322a8-508e-41ac-9915-18c8c5f839ed))
  (fp_rect (start -2.54 -5.334) (end 7.62 5.334) (layer "F.CrtYd") (width 0.05) (fill none) (tstamp 5742aa57-7887-4a73-ba36-ba2e4c8353ad))
  (pad "1" thru_hole circle (at 0 0) (size 3.556 3.556) (drill 2) (layers *.Cu *.Mask) (tstamp d3f48508-2ccc-416e-852f-fd8ae9a6f0f2))
  (pad "2" thru_hole circle (at 5.08 0) (size 3.556 3.556) (drill 2) (layers *.Cu *.Mask) (tstamp 34ac04fd-9505-45ae-9ef0-07726b82df62))
)
